test_run_dir/util.DebounceSpec930745029/Debounce.vcd
$date
2020-02-11T14:56+0000
$end
$version
0.2
$end
$comment

$end
$timescale 1ns  $end
$scope module Debounce $end
 $var wire 8 ! _GEN_2 $end
 $var wire 1 " _T $end
 $var wire 8 # io_sw $end
 $var wire 1 $ io_btnU $end
 $var wire 8 % io_led $end
 $var wire 1 & tick $end
 $var wire 3 ' _GEN_1 $end
 $var wire 1 ( btnSync $end
 $var wire 1 ) btnFilter $end
 $var wire 1 * clock $end
 $var wire 1 + risingEdge $end
 $var wire 1 , _GEN_0 $end
 $var wire 8 - r1 $end
 $var wire 1 . reset $end
 $var wire 1 / btnDeb $end
$upscope $end
$enddefinitions $end
$dumpvars
0&
b00000000 !
0.
0/
b00000000 #
0(
0"
0)
0*
b00000000 -
b000 '
b00000000 %
0+
0,
0$
$end
#0
1.
#1
1*
#6
0*
#11
1*
#16
0*
#21
1*
#26
0*
#31
1*
#36
0*
#41
1*
#46
0.
0*
#51
1*
#56
0*
#61
1*
#66
0*
#71
1*
#76
0*
#81
1*
#86
0*
#91
1*
#96
0*
#101
1*
#106
0*
#111
1*
#116
0*
#121
1*
#126
0*
#131
1*
#136
0*
#141
1*
#146
0*
#151
1*
#156
0*
#161
1*
#166
0*
#171
1*
#176
0*
#181
1*
#186
0*
#191
1*
#196
0*
#201
1*
#206
0*
#211
1*
#216
0*
#221
1*
#226
0*
#231
1*
#236
0*
#241
1*
#246
0*
#251
1*
#256
0*
#261
1*
#266
0*
#271
1*
#276
0*
#281
1*
#286
0*
#291
1*
#296
0*
#301
1*
#306
0*
#311
1*
#316
0*
#321
1*
#326
0*
#331
1*
#336
0*
#341
1*
#346
0*
#351
1*
#356
0*
#361
1*
#366
0*
#371
1*
#376
0*
#381
1*
#386
0*
#391
1*
#396
0*
#401
1*
#406
0*
1$
#411
1"
1*
#416
0*
#421
1*
1(
#426
0*
#431
1*
#436
0*
0$
#441
0"
1*
#446
0*
#451
1*
0(
#456
0*
#461
1*
#466
0*
1$
#471
1"
1*
#476
0*
#481
1*
1(
